{
    "env": "development",
    "port": 3000,
    "secretJWT": "100500",
    "db": {
        "username": "root",
        "password": "rootpsswd",
        "database": "itm",
        "dialect": "mysql",
        "host": "mysql",
        "port": "3306"
    }
}